module dns-takeover

go 1.18

require (
	github.com/fatih/color v1.13.0
	github.com/gammazero/workerpool v1.1.2
	github.com/go-ping/ping v1.1.0
	github.com/likexian/whois v1.12.5
	github.com/likexian/whois-parser v1.22.0
	github.com/miekg/dns v1.1.49
	github.com/projectdiscovery/retryabledns v1.0.13
)

require (
	github.com/gammazero/deque v0.1.0 // indirect
	github.com/google/uuid v1.2.0 // indirect
	github.com/karrick/godirwalk v1.16.1 // indirect
	github.com/likexian/gokit v0.25.6 // indirect
	github.com/mattn/go-colorable v0.1.9 // indirect
	github.com/mattn/go-isatty v0.0.14 // indirect
	github.com/projectdiscovery/blackrock v0.0.0-20210415162320-b38689ae3a2e // indirect
	github.com/projectdiscovery/fileutil v0.0.0-20210926202739-6050d0acf73c // indirect
	github.com/projectdiscovery/iputil v0.0.0-20210804143329-3a30fcde43f3 // indirect
	github.com/projectdiscovery/mapcidr v0.0.7 // indirect
	github.com/projectdiscovery/retryablehttp-go v1.0.2 // indirect
	github.com/projectdiscovery/stringsutil v0.0.0-20210823090203-2f5f137e8e1d // indirect
	golang.org/x/mod v0.4.2 // indirect
	golang.org/x/net v0.0.0-20210929193557-e81a3d93ecf6 // indirect
	golang.org/x/sync v0.0.0-20210220032951-036812b2e83c // indirect
	golang.org/x/sys v0.0.0-20210630005230-0f9fa26af87c // indirect
	golang.org/x/text v0.3.6 // indirect
	golang.org/x/tools v0.1.6-0.20210726203631-07bc1bf47fb2 // indirect
	golang.org/x/xerrors v0.0.0-20200804184101-5ec99f83aff1 // indirect
)
